lab2/simulation/qsim/Block1.msim.vcd
$comment
	File created using the following command:
		vcd file Block1.msim.vcd -direction
$end
$date
	Wed Mar  7 17:44:46 2018
$end
$version
	ModelSim Version 10.5b
$end
$timescale
	1ps
$end

$scope module Block1_vlg_vec_tst $end
$var reg 1 ! A $end
$var reg 1 " B $end
$var reg 1 # C $end
$var reg 1 $ D $end
$var reg 1 % E $end
$var wire 1 & F $end

$scope module i1 $end
$var wire 1 ' gnd $end
$var wire 1 ( vcc $end
$var wire 1 ) unknown $end
$var tri1 1 * devclrn $end
$var tri1 1 + devpor $end
$var tri1 1 , devoe $end
$var wire 1 - ~QUARTUS_CREATED_GND~I_combout $end
$var wire 1 . D~input_o $end
$var wire 1 / A~input_o $end
$var wire 1 0 C~input_o $end
$var wire 1 1 B~input_o $end
$var wire 1 2 E~input_o $end
$var wire 1 3 inst11~0_combout $end
$upscope $end
$upscope $end
$enddefinitions $end
#0
$dumpvars
0!
0"
0#
0$
0%
1&
0'
1(
x)
1*
1+
1,
0-
0.
0/
00
01
02
13
$end
#25000
1%
12
03
0&
#50000
1$
0%
1.
02
13
1&
#75000
1%
12
03
0&
#100000
1#
0$
0%
10
0.
02
#125000
1%
12
13
1&
#150000
1$
0%
1.
02
03
0&
#175000
1%
12
#200000
1"
0#
0$
0%
11
00
0.
02
13
1&
#225000
1%
12
03
0&
#250000
1$
0%
1.
02
#275000
1%
12
#300000
1#
0$
0%
10
0.
02
#325000
1%
12
13
1&
#350000
1$
0%
1.
02
03
0&
#375000
1%
12
13
1&
#400000
1!
0"
0#
0$
0%
1/
01
00
0.
02
03
0&
#420000
1%
12
#450000
1$
0%
1.
02
13
1&
#475000
1%
12
03
0&
#500000
1#
0$
0%
10
0.
02
#525000
1%
12
13
1&
#550000
1$
0%
1.
02
03
0&
#575000
1%
12
#600000
1"
0#
0$
0%
11
00
0.
02
13
1&
#625000
1%
12
03
0&
#650000
1$
0%
1.
02
#675000
1%
12
#700000
1#
0$
0%
10
0.
02
#725000
1%
12
13
1&
#750000
1$
0%
1.
02
03
0&
#775000
1%
12
13
1&
