lab2/simulation/qsim/estrutural.msim.vcd
$comment
	File created using the following command:
		vcd file estrutural.msim.vcd -direction
$end
$date
	Wed Mar  7 18:02:18 2018
$end
$version
	ModelSim Version 10.5b
$end
$timescale
	1ps
$end

$scope module estrutural_vhd_vec_tst $end
$var wire 1 ! A $end
$var wire 1 " B $end
$var wire 1 # C $end
$var wire 1 $ D $end
$var wire 1 % E $end
$var wire 1 & F $end

$scope module i1 $end
$var wire 1 ' gnd $end
$var wire 1 ( vcc $end
$var wire 1 ) unknown $end
$var wire 1 * devoe $end
$var wire 1 + devclrn $end
$var wire 1 , devpor $end
$var wire 1 - ww_devoe $end
$var wire 1 . ww_devclrn $end
$var wire 1 / ww_devpor $end
$var wire 1 0 ww_A $end
$var wire 1 1 ww_B $end
$var wire 1 2 ww_C $end
$var wire 1 3 ww_D $end
$var wire 1 4 ww_E $end
$var wire 1 5 ww_F $end
$var wire 1 6 \~QUARTUS_CREATED_GND~I_combout\ $end
$var wire 1 7 \B~input_o\ $end
$var wire 1 8 \D~input_o\ $end
$var wire 1 9 \E~input_o\ $end
$var wire 1 : \A~input_o\ $end
$var wire 1 ; \C~input_o\ $end
$var wire 1 < \F~0_combout\ $end
$var wire 1 = \ALT_INV_C~input_o\ $end
$var wire 1 > \ALT_INV_E~input_o\ $end
$var wire 1 ? \ALT_INV_D~input_o\ $end
$var wire 1 @ \ALT_INV_B~input_o\ $end
$var wire 1 A \ALT_INV_A~input_o\ $end
$var wire 1 B \ALT_INV_F~0_combout\ $end
$upscope $end
$upscope $end
$enddefinitions $end
#0
$dumpvars
0!
0"
0#
0$
0%
1&
0'
1(
x)
1*
1+
1,
1-
1.
1/
00
01
02
03
04
15
x6
07
08
09
0:
0;
0<
1=
1>
1?
1@
1A
1B
$end
#25000
1%
14
19
0>
1<
0B
05
0&
#50000
0%
1$
04
13
18
09
1>
0?
0<
1B
15
1&
#75000
1%
14
19
0>
1<
0B
05
0&
#100000
0%
0$
1#
04
03
12
1;
08
09
1>
1?
0=
#125000
1%
14
19
0>
0<
1B
15
1&
#150000
0%
1$
04
13
18
09
1>
0?
1<
0B
05
0&
#175000
1%
14
19
0>
#200000
0%
0$
0#
1"
04
03
02
11
17
0;
08
09
1>
1?
1=
0@
0<
1B
15
1&
#225000
1%
14
19
0>
1<
0B
05
0&
#250000
0%
1$
04
13
18
09
1>
0?
#275000
1%
14
19
0>
#300000
0%
0$
1#
04
03
12
1;
08
09
1>
1?
0=
#325000
1%
14
19
0>
0<
1B
15
1&
#350000
0%
1$
04
13
18
09
1>
0?
1<
0B
05
0&
#375000
1%
14
19
0>
0<
1B
15
1&
#400000
0%
0$
0#
0"
1!
04
03
02
01
10
1:
07
0;
08
09
1>
1?
1=
1@
0A
1<
0B
05
0&
#420000
1%
14
19
0>
#450000
0%
1$
04
13
18
09
1>
0?
0<
1B
15
1&
#475000
1%
14
19
0>
1<
0B
05
0&
#500000
0%
0$
1#
04
03
12
1;
08
09
1>
1?
0=
#525000
1%
14
19
0>
0<
1B
15
1&
#550000
0%
1$
04
13
18
09
1>
0?
1<
0B
05
0&
#575000
1%
14
19
0>
#600000
0%
0$
0#
1"
04
03
02
11
17
0;
08
09
1>
1?
1=
0@
0<
1B
15
1&
#625000
1%
14
19
0>
1<
0B
05
0&
#650000
0%
1$
04
13
18
09
1>
0?
#675000
1%
14
19
0>
#700000
0%
0$
1#
04
03
12
1;
08
09
1>
1?
0=
#725000
1%
14
19
0>
0<
1B
15
1&
#750000
0%
1$
04
13
18
09
1>
0?
1<
0B
05
0&
#775000
1%
14
19
0>
0<
1B
15
1&
